﻿{
  "version": "1.0.0-*",
  "description": "Implementation if EntityFramework6 support for Asp.Net Identity 3.0 RC1",
  "authors": [ "Gena Hrapan" ],
  "tags": [ "" ],
  "projectUrl": "",
  "licenseUrl": "",

  "frameworks": {
    "net451": {
      "dependencies": {
        "EntityFramework": "6.1.3",
        "Microsoft.AspNet.Identity": "3.0.0-rc1-final"
      },
      "frameworkAssemblies": {
        "System.Data": "4.0.0.0"
      }
    }
  }
}
